<svg width="70" height="70" viewBox="0 0 70 70" fill="none" xmlns="http://www.w3.org/2000/svg">
<path fill-rule="evenodd" clip-rule="evenodd" d="M10.2515 10.255L10.255 10.248L10.262 10.2515L12.1065 8.4035C12.4682 8.04226 12.9538 7.83219 13.4647 7.81594C13.9756 7.79969 14.4736 7.97847 14.8575 8.316L19.0925 12.0295C20.2545 13.097 21.8015 13.7515 23.5025 13.7515C25.3015 13.7515 26.9325 13.0165 28.1085 11.8335C29.2215 10.7135 29.9285 9.1945 29.995 7.511H30.009L30.3765 1.8865C30.4103 1.37674 30.6366 0.898893 31.0097 0.54987C31.3828 0.200847 31.8746 0.00677197 32.3855 0.00700033H34.9965H37.611C38.6715 0.00700033 39.55 0.8295 39.62 1.8865L39.9875 7.511H40.005C40.0715 9.205 40.7855 10.731 41.909 11.851C43.085 13.0235 44.709 13.7515 46.501 13.7515C48.223 13.7515 49.791 13.0795 50.953 11.9875L55.139 8.3125C55.5233 7.97543 56.0216 7.79726 56.5325 7.81416C57.0434 7.83106 57.5288 8.04177 57.89 8.4035L59.738 10.2515L59.745 10.2445V10.2515L59.7415 10.2585L61.5895 12.103C61.9512 12.4642 62.1619 12.9496 62.1788 13.4605C62.1957 13.9714 62.0176 14.4697 61.6805 14.854L57.9705 19.096C56.8621 20.2942 56.247 21.8667 56.2485 23.499C56.2485 25.3015 56.9835 26.929 58.1665 28.1085C59.2865 29.2215 60.802 29.9285 62.489 29.995V30.009L68.11 30.3765C69.1705 30.4465 69.993 31.325 69.993 32.3855V35H70V35.007H69.993V37.618C69.9932 38.1289 69.7991 38.6207 69.4501 38.9938C69.1011 39.3669 68.6233 39.5932 68.1135 39.627L62.489 40.0015V40.005C60.795 40.075 59.269 40.7855 58.149 41.909C56.9765 43.085 56.2485 44.709 56.2485 46.501C56.2485 48.202 56.903 49.749 57.974 50.911H57.967L61.684 55.1495C62.384 55.9475 62.342 57.1515 61.593 57.9005L59.745 59.7485V59.7555L57.8935 61.6C57.5324 61.9607 57.0478 62.1708 56.5377 62.1877C56.0276 62.2046 55.5301 62.0271 55.146 61.691L51.058 58.1175C49.8443 56.9189 48.2068 56.2473 46.501 56.2485C44.6985 56.2485 43.071 56.9835 41.8915 58.1665C40.7785 59.2865 40.0715 60.809 40.0015 62.4995H39.9875L39.62 68.124C39.5876 68.6133 39.3777 69.0739 39.0297 69.4193C38.6816 69.7647 38.2195 69.9712 37.73 70H32.27C31.7805 69.9712 31.3184 69.7647 30.9703 69.4193C30.6223 69.0739 30.4124 68.6133 30.38 68.124L30.0125 62.4995H29.9985C29.9373 60.8589 29.2555 59.3027 28.091 58.1455C27.4889 57.5435 26.774 57.0661 25.9873 56.7406C25.2006 56.4151 24.3574 56.2479 23.506 56.2485C21.742 56.2485 20.146 56.9485 18.9735 58.0895L14.854 61.6945C14.4694 62.0301 13.9717 62.207 13.4616 62.1895C12.9515 62.1719 12.4671 61.9612 12.1065 61.6L10.2585 59.752L10.255 59.7485L8.407 57.9005C8.04527 57.5393 7.83456 57.0539 7.81766 56.543C7.80076 56.0321 7.97893 55.5338 8.316 55.1495L12.033 50.9145L12.0295 50.911C13.1409 49.7116 13.7573 48.1361 13.755 46.501C13.755 44.6985 13.02 43.071 11.837 41.8915C10.6837 40.7408 9.13898 40.0672 7.511 40.005V40.0015L1.8865 39.627C1.37674 39.5932 0.898893 39.3669 0.54987 38.9938C0.200847 38.6207 0.00677197 38.1289 0.00700033 37.618V35.007H0V35L0.00349975 32.3855C0.00349975 31.325 0.826 30.4465 1.8865 30.3765L7.5075 30.009V29.995C9.14565 29.9321 10.699 29.2504 11.8545 28.0875C13.027 26.9115 13.7515 25.2875 13.7515 23.5025C13.7515 21.7875 13.0865 20.23 12.005 19.068L8.316 14.854C7.97893 14.4697 7.80076 13.9714 7.81766 13.4605C7.83456 12.9496 8.04527 12.4642 8.407 12.103L10.255 10.2585L10.2515 10.255ZM50.001 35C50.001 38.9785 48.4205 42.7941 45.6073 45.6073C42.7941 48.4205 38.9785 50.001 35 50.001C31.0215 50.001 27.2059 48.4205 24.3927 45.6073C21.5795 42.7941 19.999 38.9785 19.999 35C19.999 31.0215 21.5795 27.2059 24.3927 24.3927C27.2059 21.5795 31.0215 19.999 35 19.999C38.9785 19.999 42.7941 21.5795 45.6073 24.3927C48.4205 27.2059 50.001 31.0215 50.001 35Z" fill="#9F99AD"/>
</svg>
