<svg width="70" height="70" viewBox="0 0 70 70" fill="none" xmlns="http://www.w3.org/2000/svg">
<g clip-path="url(#clip0_173_1357)">
<path fill-rule="evenodd" clip-rule="evenodd" d="M62.4131 35L69.3866 28.0265C70.1386 27.2745 70.2088 26.1231 69.5437 25.4563C68.8769 24.7912 67.7256 24.8614 66.9736 25.6134L60 32.587L53.0264 25.6134C52.2744 24.8614 51.1231 24.7912 50.4563 25.4563C49.7912 26.1231 49.8614 27.2745 50.6134 28.0265L57.5869 35L50.6134 41.9735C49.8614 42.7255 49.7912 43.8769 50.4563 44.5437C51.1231 45.2088 52.2744 45.1386 53.0264 44.3866L60 37.413L66.9736 44.3866C67.7256 45.1386 68.8769 45.2088 69.5437 44.5437C70.2088 43.8769 70.1386 42.7255 69.3866 41.9735L62.4131 35Z" fill="#9F99AD"/>
<path fill-rule="evenodd" clip-rule="evenodd" d="M0 46.6667V23.3333C0 20.1133 2.5088 17.5 5.6 17.5H14V52.5H5.6C2.5088 52.5 0 49.8867 0 46.6667ZM39.2 70L19.6 56.3879V13.6121L39.2 0C42.2912 0 44.8 2.61333 44.8 5.83333V64.1667C44.8 67.3867 42.2912 70 39.2 70Z" fill="#9F99AD"/>
</g>
<defs>
<clipPath id="clip0_173_1357">
<rect width="70" height="70" fill="white"/>
</clipPath>
</defs>
</svg>
